Ejercicios de estadística multivariante, parte I
…
X <- tibble (
  X_1 = X_1,
  X_2 = X_2,
  X_3 = X_3,
  X_4 = X_4,
  X_5 = X_5
)

X

# A tibble: 50 × 5
        X_1    X_2    X_3   X_4      X_5
      <dbl>  <dbl>  <dbl> <dbl>    <dbl>
 1  3.24     0.788 11.5    5.14   8.84  
 2  1.02     6.25   3.06   2.92  20.8   
 3 -0.105   -1.36   2.45   5.13  -4.28  
 4  0.479    3.54  -0.745  4.69  11.6   
 5  1.61    -1.04  -0.306  1.78   0.0986
 6 -0.686   -0.147 -0.472  5.26  -1.81  
 7  0.00574 -5.49  -3.75   2.51 -16.4   
 8  0.482    4.72   2.44   3.40  15.1   
 9 -2.07     9.93  -7.73   4.28  25.7   
10 -0.854    2.81  -0.593  3.51   6.71  
# ℹ 40 more rows
…
Escala la tercera variable por 1.5.

Mantener la cuarta variable sin cambios.

Ahora, transforma la matriz de datos \(X\) en una nueva matriz \(Y = X T\). Calcula el vector de medias \(\mu_Y\) de las variables transformadas y la matriz de covarianzas \(\Sigma_Y\). Verifica tus resultados con las funciones colMeans() y cov() de R.

Respuesta

Aprovechamos las variables que hemos creado para el anterior problema, así que quitamos la última variable del tibble:

X <- X %>% select(-c(5))
X

# A tibble: 50 × 4
        X_1    X_2    X_3   X_4
      <dbl>  <dbl>  <dbl> <dbl>
 1  3.24     0.788 11.5    5.14
 2  1.02     6.25   3.06   2.92
 3 -0.105   -1.36   2.45   5.13
 4  0.479    3.54  -0.745  4.69
 5  1.61    -1.04  -0.306  1.78
 6 -0.686   -0.147 -0.472  5.26
 7  0.00574 -5.49  -3.75   2.51
 8  0.482    4.72   2.44   3.40
 9 -2.07     9.93  -7.73   4.28
10 -0.854    2.81  -0.593  3.51
# ℹ 40 more rows
…
